pharmaverse examples - ADSL
…
Next we need to load the specification file in the form of a {metacore} object.

# Read in metacore object 
load(metacore_example("pilot_ADaM.rda"))
metacore <- metacore %>% 
   select_dataset("ADSL")

Here is an example of how a {metacore} object looks showing variable level metadata:

metacore$ds_vars

# A tibble: 49 × 7
   dataset variable key_seq order keep  core  supp_flag
   <chr>   <chr>      <int> <int> <lgl> <chr> <lgl>    
 1 ADSL    STUDYID       NA     1 FALSE <NA>  NA       
 2 ADSL    USUBJID        1     2 FALSE <NA>  NA       
 3 ADSL    SUBJID        NA     3 FALSE <NA>  NA       
 4 ADSL    SITEID        NA     4 FALSE <NA>  NA       
 5 ADSL    SITEGR1       NA     5 FALSE <NA>  NA       
 6 ADSL    ARM           NA     6 FALSE <NA>  NA       
 7 ADSL    TRT01P        NA     7 FALSE <NA>  NA       
 8 ADSL    TRT01PN       NA     8 FALSE <NA>  NA       
 9 ADSL    TRT01A        NA     9 FALSE <NA>  NA       
10 ADSL    TRT01AN       NA    10 FALSE <NA>  NA       
# ℹ 39 more rows
…
Apply Metadata to Create an eSub XPT and Perform Associated Checks

Now we have all the variables defined we can run some checks before applying the necessary formatting. The top four functions performing checks and sorting/ordering come from {metatools}, whereas the others focused around applying attributes to prepare for XPT come from {xportr}. At the end you could add a call to xportr::xportr_write() to produce the XPT file.

adsl_raw %>% 
   check_variables(metacore) %>% # Check all variables specified are present and no more
   check_ct_data(metacore, na_acceptable = TRUE) %>% # Checks all variables with CT only contain values within the CT
   order_cols(metacore) %>% # Orders the columns according to the spec
   sort_by_key(metacore) %>% # Sorts the rows by the sort keys 
   xportr_type(metacore) %>% # Coerce variable type to match spec
   xportr_length(metacore) %>% # Assigns SAS length from a variable level metadata 
   xportr_label(metacore) %>% # Assigns variable label from metacore specifications 
   xportr_df_label(metacore) # Assigns dataset label from metacore specifications

# A tibble: 306 × 49
   STUDYID     USUBJID SUBJID SITEID SITEGR1 ARM   TRT01P TRT01PN TRT01A TRT01AN
   <chr>       <chr>   <chr>  <chr>  <chr>   <chr> <chr>    <dbl> <chr>    <dbl>
 1 CDISCPILOT… 01-701… 1015   701    <NA>    Plac… Place…      NA <NA>        NA
 2 CDISCPILOT… 01-701… 1023   701    <NA>    Plac… Place…      NA <NA>        NA
 3 CDISCPILOT… 01-701… 1028   701    <NA>    Xano… Xanom…      NA <NA>        NA
 4 CDISCPILOT… 01-701… 1033   701    <NA>    Xano… Xanom…      NA <NA>        NA
 5 CDISCPILOT… 01-701… 1034   701    <NA>    Xano… Xanom…      NA <NA>        NA
 6 CDISCPILOT… 01-701… 1047   701    <NA>    Plac… Place…      NA <NA>        NA
 7 CDISCPILOT… 01-701… 1057   701    <NA>    <NA>  <NA>        NA <NA>        NA
 8 CDISCPILOT… 01-701… 1097   701    <NA>    Xano… Xanom…      NA <NA>        NA
 9 CDISCPILOT… 01-701… 1111   701    <NA>    Xano… Xanom…      NA <NA>        NA
10 CDISCPILOT… 01-701… 1115   701    <NA>    Xano… Xanom…      NA <NA>        NA
# ℹ 296 more rows
# ℹ 39 more variables: TRTSDT <date>, TRTEDT <date>, TRTDURD <dbl>,
#   AVGDD <dbl>, CUMDOSE <dbl>, AGE <dbl>, AGEGR1 <chr>, AGEGR1N <dbl>,
#   AGEU <chr>, RACE <chr>, RACEN <dbl>, SEX <chr>, ETHNIC <chr>, SAFFL <chr>,
#   ITTFL <chr>, EFFFL <chr>, COMP8FL <chr>, COMP16FL <chr>, COMP24FL <chr>,
#   DISCONFL <chr>, DSRAEFL <chr>, DTHFL <chr>, BMIBL <dbl>, BMIBLGR1 <chr>,
#   HEIGHTBL <dbl>, WEIGHTBL <dbl>, EDUCLVL <dbl>, DISONSDT <lgl>, …
…
