ADVS – pharmaverse examples
…
  derivation = derive_var_extreme_flag,
  args = params(
    by_vars = exprs(STUDYID, USUBJID, BASETYPE, PARAMCD),
    order = exprs(ADT, VISITNUM, VSSEQ),
    new_var = ABLFL,
    mode = "last", # Determines of the first or last observation is flagged
    # Below arguments are default values and not necessary to add in our case
    true_value = "Y"
  ),
  filter = (!is.na(AVAL) &
    ADT <= TRTSDT & !is.na(BASETYPE) & is.na(DTYPE)
  )
)

# A tibble: 30 × 7
   USUBJID     BASETYPE                PARAMCD ADT        TRTSDT     ATPTN ABLFL
   <chr>       <chr>                   <chr>   <date>     <date>     <dbl> <chr>
 1 01-701-1015 LAST: AFTER LYING DOWN… DIABP   2014-01-02 2014-01-02   815 Y    
 2 01-701-1015 LAST: AFTER STANDING F… DIABP   2014-01-02 2014-01-02   816 Y    
 3 01-701-1015 LAST: AFTER STANDING F… DIABP   2014-01-02 2014-01-02   817 Y    
 4 01-701-1023 LAST: AFTER LYING DOWN… DIABP   2012-08-05 2012-08-05   815 Y    
 5 01-701-1023 LAST: AFTER STANDING F… DIABP   2012-08-05 2012-08-05   816 Y    
 6 01-701-1023 LAST: AFTER STANDING F… DIABP   2012-08-05 2012-08-05   817 Y    
 7 01-701-1028 LAST: AFTER LYING DOWN… DIABP   2013-07-19 2013-07-19   815 Y    
 8 01-701-1028 LAST: AFTER STANDING F… DIABP   2013-07-19 2013-07-19   816 Y    
 9 01-701-1028 LAST: AFTER STANDING F… DIABP   2013-07-19 2013-07-19   817 Y    
10 01-701-1033 LAST: AFTER LYING DOWN… DIABP   2014-03-18 2014-03-18   815 Y    
# ℹ 20 more rows
…
Change and percent change from baseline can be derived using the {admiral} functions admiral::derive_var_chg() and admiral::derive_var_pchg(). These functions expect AVAL and BASE to exist in the data frame. The CHG is simply AVAL - BASE and the PCHG is (AVAL - BASE) / absolute value (BASE) * 100. If the variables should not be derived for all records, e.g., for post-baseline records only, admiral::restrict_derivation() can be used. Examples calls are:

advs <- restrict_derivation(
  advs,
  derivation = derive_var_chg,
  filter = AVISITN > 0
)

advs <- restrict_derivation(
  advs,
  derivation = derive_var_pchg,
  filter = AVISITN > 0
)

# A tibble: 30 × 7
   USUBJID     PARAMCD VISIT   BASE  AVAL   CHG   PCHG
   <chr>       <chr>   <chr>  <dbl> <dbl> <dbl>  <dbl>
 1 01-701-1015 DIABP   WEEK 2    56    56     0   0   
 2 01-701-1015 DIABP   WEEK 8    56    67    11  19.6 
 3 01-701-1023 DIABP   WEEK 2    84    88     4   4.76
 4 01-701-1028 DIABP   WEEK 2    85    78    -7  -8.24
 5 01-701-1028 DIABP   WEEK 8    85    76    -9 -10.6 
 6 01-701-1033 DIABP   WEEK 2    83    84     1   1.20
 7 01-701-1034 DIABP   WEEK 2    60    81    21  35   
 8 01-701-1034 DIABP   WEEK 8    60    73    13  21.7 
 9 01-701-1047 DIABP   WEEK 2    61    72    11  18.0 
10 01-701-1097 DIABP   WEEK 2    72    72     0   0   
# ℹ 20 more rows
…
advs <-   restrict_derivation(
  advs,
  derivation = derive_var_extreme_flag,
  args = params(
    new_var = ANL01FL,
    by_vars = exprs(STUDYID, USUBJID, PARAMCD, AVISIT, ATPT, DTYPE),
    order = exprs(ADT, AVAL),
    mode = "last", # Determines of the first or last observation is flagged - As seen while deriving ABLFL
    # Below arguments are default values and not necessary to add in our case
    true_value = "Y"
    ),
  filter = !is.na(AVISITN) & ONTRTFL == "Y"
)

# A tibble: 30 × 7
   USUBJID     PARAMCD AVISIT ATPTN ADT         AVAL ANL01FL
   <chr>       <chr>   <chr>  <dbl> <date>     <dbl> <chr>  
 1 01-701-1015 DIABP   Week 2   815 2014-01-16    56 Y      
 2 01-701-1015 DIABP   Week 2   816 2014-01-16    50 Y      
 3 01-701-1015 DIABP   Week 2   817 2014-01-16    54 Y      
 4 01-701-1015 DIABP   Week 8   815 2014-03-05    67 Y      
 5 01-701-1015 DIABP   Week 8   816 2014-03-05    62 Y      
 6 01-701-1015 DIABP   Week 8   817 2014-03-05    71 Y      
 7 01-701-1023 DIABP   Week 2   815 2012-08-27    88 Y      
 8 01-701-1023 DIABP   Week 2   816 2012-08-27    86 Y      
 9 01-701-1023 DIABP   Week 2   817 2012-08-27    90 Y      
10 01-701-1028 DIABP   Week 2   815 2013-08-01    78 Y      
# ℹ 20 more rows
…
For studies with periods see the “Visit and Period Variables” vignette.

Assign ASEQ

The {admiral} function admiral::derive_var_obs_number() can be used to derive ASEQ. An example call is:

advs <- derive_var_obs_number(
  advs,
  new_var = ASEQ,
  by_vars = exprs(STUDYID, USUBJID),
  order = exprs(PARAMCD, ADT, AVISITN, VISITNUM, ATPTN, DTYPE),
  check_type = "error"
)

# A tibble: 30 × 7
   USUBJID     PARAMCD ADT        AVISITN ATPTN VISIT        ASEQ
   <chr>       <chr>   <date>       <dbl> <dbl> <chr>       <int>
 1 01-701-1015 BMI     2013-12-26      NA    NA SCREENING 1     1
 2 01-701-1015 BMI     2013-12-26      NA    NA <NA>            2
 3 01-701-1015 BMI     2014-01-02       0    NA BASELINE        3
 4 01-701-1015 BMI     2014-01-02       0    NA <NA>            4
 5 01-701-1015 BMI     2014-01-16       2    NA WEEK 2          5
 6 01-701-1015 BMI     2014-01-16       2    NA <NA>            6
 7 01-701-1015 BMI     2014-01-30       4    NA WEEK 4          7
 8 01-701-1015 BMI     2014-01-30       4    NA <NA>            8
 9 01-701-1015 BMI     2014-02-12       6    NA WEEK 6          9
10 01-701-1015 BMI     2014-02-12       6    NA <NA>           10
# ℹ 20 more rows
…
We can use the admiral::derive_vars_cat() function to derive the categorization variables.

avalcat_lookup <- exprs(
  ~PARAMCD,  ~condition,   ~AVALCAT1, ~AVALCA1N,
  "HEIGHT",  AVAL > 140,   ">140 cm",         1,
  "HEIGHT", AVAL <= 140, "<= 140 cm",         2
)

advs <- advs %>%
  derive_vars_cat(
    definition = avalcat_lookup,
    by_vars = exprs(PARAMCD)
  )

# A tibble: 30 × 5
   USUBJID     PARAMCD  AVAL AVALCA1N AVALCAT1
   <chr>       <chr>   <dbl>    <dbl> <chr>   
 1 01-701-1015 HEIGHT   147.        1 >140 cm 
 2 01-701-1015 HEIGHT   147.        1 >140 cm 
 3 01-701-1023 HEIGHT   163.        1 >140 cm 
 4 01-701-1023 HEIGHT   163.        1 >140 cm 
 5 01-701-1028 HEIGHT   178.        1 >140 cm 
 6 01-701-1028 HEIGHT   178.        1 >140 cm 
 7 01-701-1033 HEIGHT   175.        1 >140 cm 
 8 01-701-1033 HEIGHT   175.        1 >140 cm 
 9 01-701-1034 HEIGHT   155.        1 >140 cm 
10 01-701-1034 HEIGHT   155.        1 >140 cm 
# ℹ 20 more rows
…
advs <- advs %>% 
  create_var_from_codelist(
    metacore,
    input_var = PARAMCD,
    out_var = PARAM,
    decode_to_code = FALSE # input_var is the code column of the codelist
    ) %>%
  create_var_from_codelist(
    metacore,
    input_var = PARAMCD,
    out_var = PARAMN
    )

# A tibble: 30 × 5
   USUBJID     VSTESTCD PARAMCD PARAM                    PARAMN
   <chr>       <chr>    <chr>   <chr>                     <dbl>
 1 01-716-1024 <NA>     BMI     Body Mass Index (kg/m^2)      8
 2 01-716-1024 <NA>     BMI     Body Mass Index (kg/m^2)      8
 3 01-716-1024 <NA>     BMI     Body Mass Index (kg/m^2)      8
 4 01-716-1024 <NA>     BMI     Body Mass Index (kg/m^2)      8
 5 01-716-1024 <NA>     BMI     Body Mass Index (kg/m^2)      8
 6 01-716-1024 <NA>     BMI     Body Mass Index (kg/m^2)      8
 7 01-716-1024 <NA>     BMI     Body Mass Index (kg/m^2)      8
 8 01-716-1024 <NA>     BMI     Body Mass Index (kg/m^2)      8
 9 01-716-1024 <NA>     BMI     Body Mass Index (kg/m^2)      8
10 01-716-1024 <NA>     BMI     Body Mass Index (kg/m^2)      8
# ℹ 20 more rows

Add ADSL variables

If needed, the other ADSL variables can now be added. List of ADSL variables already merged held in vector adsl_vars

advs <- advs %>%
  derive_vars_merged(
    dataset_add = select(adsl, !!!negate_vars(adsl_vars)),
    by_vars = exprs(STUDYID, USUBJID)
  )

# A tibble: 30 × 7
   USUBJID     RFSTDTC    RFENDTC    DTHDTC DTHFL   AGE AGEU 
   <chr>       <chr>      <chr>      <chr>  <chr> <dbl> <chr>
 1 01-701-1015 2014-01-02 2014-07-02 <NA>   <NA>     63 YEARS
 2 01-701-1015 2014-01-02 2014-07-02 <NA>   <NA>     63 YEARS
 3 01-701-1015 2014-01-02 2014-07-02 <NA>   <NA>     63 YEARS
 4 01-701-1015 2014-01-02 2014-07-02 <NA>   <NA>     63 YEARS
 5 01-701-1015 2014-01-02 2014-07-02 <NA>   <NA>     63 YEARS
 6 01-701-1015 2014-01-02 2014-07-02 <NA>   <NA>     63 YEARS
 7 01-701-1015 2014-01-02 2014-07-02 <NA>   <NA>     63 YEARS
 8 01-701-1015 2014-01-02 2014-07-02 <NA>   <NA>     63 YEARS
 9 01-701-1015 2014-01-02 2014-07-02 <NA>   <NA>     63 YEARS
10 01-701-1015 2014-01-02 2014-07-02 <NA>   <NA>     63 YEARS
# ℹ 20 more rows
…
